Using TimeCodeWAS • HadesExtras
…
timeCodeWasCounts
#> # A tibble: 1,218 × 13
#>    covariateId timeId n_cases_yes n_controls_yes n_cases n_controls n_cases_no
#>          <dbl>  <dbl>       <dbl>          <dbl>   <dbl>      <dbl>      <dbl>
#>  1  3000876701      2           2              5      73        535         71
#>  2  3000876701      3           3              9     101        891         98
#>  3  3000876701      4           4              9     101        986         97
#>  4  3000876701      5           2              5     101        986         99
#>  5  3000876701      8           1              4     101        986        100
#>  6  3000963701      1           1              1      35        203         34
#>  7  3001247701      2           2              5      73        535         71
#>  8  3001247701      3           3              9     101        891         98
#>  9  3001247701      4           4              9     101        986         97
#> 10  3001247701      5           2              5     101        986         99
#> # ℹ 1,208 more rows
#> # ℹ 6 more variables: n_controls_no <dbl>, timeRange <chr>,
#> #   covariateName <chr>, p <dbl>, OR <dbl>, up_in <chr>
…
